…
    ## See spec(...) for full column specifications.

``` r
# select wanted variables
nyc_transit_data
```

    ## # A tibble: 1,868 x 19
    ##    line  station_name route1 route2 route3 route4 route5 route6 route7
    ##    <chr> <chr>        <chr>  <chr>  <chr>  <chr>  <chr>  <chr>  <chr> 
    ##  1 4 Av… 25th St      R      <NA>   <NA>   <NA>   <NA>   <NA>   <NA>  
    ##  2 4 Av… 25th St      R      <NA>   <NA>   <NA>   <NA>   <NA>   <NA>  
    ##  3 4 Av… 36th St      N      R      <NA>   <NA>   <NA>   <NA>   <NA>  
    ##  4 4 Av… 36th St      N      R      <NA>   <NA>   <NA>   <NA>   <NA>  
    ##  5 4 Av… 36th St      N      R      <NA>   <NA>   <NA>   <NA>   <NA>  
    ##  6 4 Av… 45th St      R      <NA>   <NA>   <NA>   <NA>   <NA>   <NA>  
    ##  7 4 Av… 45th St      R      <NA>   <NA>   <NA>   <NA>   <NA>   <NA>  
    ##  8 4 Av… 45th St      R      <NA>   <NA>   <NA>   <NA>   <NA>   <NA>  
    ##  9 4 Av… 45th St      R      <NA>   <NA>   <NA>   <NA>   <NA>   <NA>  
    ## 10 4 Av… 53rd St      R      <NA>   <NA>   <NA>   <NA>   <NA>   <NA>  
    ## # ... with 1,858 more rows, and 10 more variables: route8 <int>,
    ## #   route9 <int>, route10 <int>, route11 <int>, station_latitude <dbl>,
    ## #   station_longitude <dbl>, entry <lgl>, vending <chr>,
    ## #   entrance_type <chr>, ada <lgl>
…
